[BEGIN]
Game Killer Pro Unlocker v3.11
(Maybe > versions)

Patch by rockz5555

Web:
http://nizwerfreegallery.blogspot.com
[PACKAGE]
[CLASSES]
{"original":"12 01 12 10 71 10 AA 09 05 00 0C 02 70 40 95 08"}
{"replaced":"12 10 0F 00 ?? ?? ?? ?? ?? ?? ?? ?? ?? ?? ?? ??"}
[END]
Now you have → Game Killer Pro!!

Regards,
★ rockz5555 ★