[BEGIN]
Patch for Titanium Backup 6.1.5 (only 6.1.5)
by Chelpus and cha-cha@4pda.ru.

Instruction: apply patch and use Pro Version.

[PACKAGE]
[CLASSES]
{"group":"1"}
{"original":"0C ?? 38 ?? ?? ?? 12 16 28 ?? 12 ?? 38 ?? ?? ?? 6E ?? ?? ?? ?? ?? 0A"}
{"replaced":"0C ?? 38 ?? ?? ?? 12 16 28 ?? 12 S1 38 ?? ?? ?? 6E ?? ?? ?? ?? ?? 0A"}
{"group":"1"}
{"original":"6E ?? ?? ?? ?? ?? 0C ?? 6E ?? ?? ?? ?? ?? 0C ?? 71 ?? ?? ?? ?? ?? 12 ?? 0F 00 00"}
{"replaced":"6E ?? ?? ?? ?? ?? 0C ?? 6E ?? ?? ?? ?? ?? 0C ?? 71 ?? ?? ?? ?? ?? 12 S1 0F 00 00"}
{"group":"1"}
{"original":"6E ?? ?? ?? ?? ?? 0C ?? 71 ?? ?? ?? ?? ?? 38 ?? ?? ?? 12 10 71 ?? ?? ?? ?? ?? 0E 00"}
{"replaced":"6E ?? ?? ?? ?? ?? 0C ?? 71 ?? ?? ?? ?? ?? 32 01 ?? ?? 12 10 71 ?? ?? ?? ?? ?? 0E 00"}
{"group":"1"}
{"original":"F9 6B 64 9B 70 04 55"}
{"replace_from_file":"tb.array.bin"}

[END]
Congratulations! Program cracked!
Run Titanium Backup and check License State! 
Good Luck!
Chelpus.