[BEGIN]

Patch By Jasi2169
(Find Me On Xda-Developers.Com)
(http://jasi2169.blogspot.com)

For WhatsApp Plus v6.43 D To Donate Version.

<<< Instructions >>>
1. Install WhatsApp Plus Modded By "Rafalense".
2. Patch It And You Got Donate Version By "Jasi2169".
3. LETS HIDE ONLINE STATUS TOGETHER ;)
4. If Any Problem,Reinstall The App And Patch it Again.

[CLASSES]

{"original":"14 04 ?? ?? ?? ?? 12 00"}
{"replaced":"12 10 0F 00 00 00 00 00"}

[ADD-BOOT]

[END]
Patched..!!
Cheers..!!
By Jasi2169